is415-gaa-michellefaith - Take-home Exercise 2: Spatio-temporal Analysis of COVID-19 Vaccination Trends at the Sub-district Level, DKI Jakarta
…
Show the code

HCSA <- wm_idw %>% 
  mutate(local_Gi = local_gstar_perm(
    `2021-07-01`, nb, wt, nsim = 99),
         .before = 1) %>%
  unnest(local_Gi)
HCSA

Simple feature collection with 261 features and 31 fields
Geometry type: MULTIPOLYGON
Dimension:     XY
Bounding box:  xmin: -3644275 ymin: 663887.8 xmax: -3606237 ymax: 701380.1
Projected CRS: DGN95 / Indonesia TM-3 zone 54.1
# A tibble: 261 x 32
   gi_star    e_gi    var_gi p_value p_sim p_fol~1 skewness kurtosis nb    wts  
     <dbl>   <dbl>     <dbl>   <dbl> <dbl>   <dbl>    <dbl>    <dbl> <nb>  <lis>
 1   2.08  0.00381   3.93e-8 0.0374   0.08    0.04  4.60e-1  0.248   <int> <dbl>
 2  -1.34  0.00383   6.01e-8 0.180    0.22    0.11 -3.19e-1 -0.505   <int> <dbl>
 3  -2.53  0.00382   7.11e-8 0.0114   0.04    0.02 -6.00e-3  0.405   <int> <dbl>
 4  -2.39  0.00383   5.00e-8 0.0170   0.08    0.04 -8.11e-2  0.257   <int> <dbl>
 5  -0.907 0.00381   7.41e-8 0.364    0.44    0.22 -1.85e-1 -0.619   <int> <dbl>
 6   0.636 0.00383   3.74e-8 0.525    0.46    0.23  3.97e-1  0.249   <int> <dbl>
 7  -0.161 0.00383   9.40e-8 0.872    0.96    0.48  6.92e-1  0.836   <int> <dbl>
 8  -2.64  0.00381   6.08e-8 0.00820  0.04    0.02  1.89e-1  0.260   <int> <dbl>
 9  -0.550 0.00383   5.48e-8 0.582    0.58    0.29  3.82e-2  0.505   <int> <dbl>
10  -2.71  0.00387   4.99e-8 0.00671  0.02    0.01  5.18e-5 -0.00474 <int> <dbl>
# ... with 251 more rows, 22 more variables: Sub_District <chr>,
#   `2021-07-01` <dbl>, `2021-08-01` <dbl>, `2021-09-01` <dbl>,
#   `2021-10-01` <dbl>, `2021-11-01` <dbl>, `2021-12-01` <dbl>,
#   `2022-01-01` <dbl>, `2022-02-01` <dbl>, `2022-03-01` <dbl>,
#   `2022-04-01` <dbl>, `2022-05-01` <dbl>, `2022-06-01` <dbl>,
#   Object_ID <dbl>, Village_Code <chr>, Village <chr>, Code <dbl>,
#   Province <chr>, City <chr>, District <chr>, Total_Population <dbl>, ...
…
